<?xml version="1.0" encoding="UTF-8" standalone="no"?>
<svg
   xmlns:dc="http://purl.org/dc/elements/1.1/"
   xmlns:cc="http://creativecommons.org/ns#"
   xmlns:rdf="http://www.w3.org/1999/02/22-rdf-syntax-ns#"
   xmlns:svg="http://www.w3.org/2000/svg"
   xmlns="http://www.w3.org/2000/svg"
   xmlns:sodipodi="http://sodipodi.sourceforge.net/DTD/sodipodi-0.dtd"
   xmlns:inkscape="http://www.inkscape.org/namespaces/inkscape"
   version="1.1"
   viewBox="0 0 60.617001 60.568001"
   x="0px"
   y="0px"
   id="svg10"
   sodipodi:docname="add.svg"
   width="60.617001"
   height="60.568001"
   inkscape:version="0.92.3 (2405546, 2018-03-11)">
  <metadata
     id="metadata16">
    <rdf:RDF>
      <cc:Work
         rdf:about="">
        <dc:format>image/svg+xml</dc:format>
        <dc:type
           rdf:resource="http://purl.org/dc/dcmitype/StillImage" />
        <dc:title>add</dc:title>
      </cc:Work>
    </rdf:RDF>
  </metadata>
  <defs
     id="defs14" />
  <sodipodi:namedview
     pagecolor="#ffffff"
     bordercolor="#666666"
     borderopacity="1"
     objecttolerance="10"
     gridtolerance="10"
     guidetolerance="10"
     inkscape:pageopacity="0"
     inkscape:pageshadow="2"
     inkscape:window-width="1920"
     inkscape:window-height="1014"
     id="namedview12"
     showgrid="false"
     fit-margin-top="0"
     fit-margin-left="0"
     fit-margin-right="0"
     fit-margin-bottom="0"
     inkscape:zoom="2.95"
     inkscape:cx="30.333"
     inkscape:cy="22.284"
     inkscape:window-x="0"
     inkscape:window-y="0"
     inkscape:window-maximized="1"
     inkscape:current-layer="svg10" />
  <title
     id="title2">add</title>
  <path
     d="M 30.333,0 C 13.64,0 0,13.588 0,30.284 0,46.977 13.593,60.568 30.333,60.568 47.026,60.568 60.617,46.977 60.617,30.284 60.617,13.591 47.026,0 30.333,0 Z m 0,7.036 c 12.824,0 23.248,10.424 23.248,23.248 0,12.824 -10.424,23.248 -23.248,23.248 C 17.509,53.532 7.085,43.108 7.085,30.284 7.085,17.46 17.509,7.036 30.333,7.036 Z m 0,6.161 c -1.928,0 -3.543,1.615 -3.543,3.543 v 9.704 h -9.703 c -1.928,0 -3.544,1.614 -3.544,3.543 0,1.929 1.616,3.543 3.544,3.543 h 9.703 v 9.703 c 0,1.928 1.615,3.543 3.543,3.543 1.928,0 3.543,-1.615 3.543,-3.543 V 33.53 h 9.703 c 1.928,0 3.544,-1.614 3.544,-3.543 0,-1.929 -1.659,-3.493 -3.544,-3.493 H 33.876 V 16.74 c 0,-1.928 -1.615,-3.543 -3.543,-3.543 z"
     id="path4"
     inkscape:connector-curvature="0" />
</svg>
