<?xml version="1.0" encoding="UTF-8" standalone="no"?>
<svg
   xmlns:dc="http://purl.org/dc/elements/1.1/"
   xmlns:cc="http://creativecommons.org/ns#"
   xmlns:rdf="http://www.w3.org/1999/02/22-rdf-syntax-ns#"
   xmlns:svg="http://www.w3.org/2000/svg"
   xmlns="http://www.w3.org/2000/svg"
   xmlns:sodipodi="http://sodipodi.sourceforge.net/DTD/sodipodi-0.dtd"
   xmlns:inkscape="http://www.inkscape.org/namespaces/inkscape"
   version="1.1"
   viewBox="0 0 60.617001 60.568001"
   x="0px"
   y="0px"
   id="svg10"
   sodipodi:docname="delete.svg"
   width="60.617001"
   height="60.568001"
   inkscape:version="0.92.3 (2405546, 2018-03-11)">
  <metadata
     id="metadata16">
    <rdf:RDF>
      <cc:Work
         rdf:about="">
        <dc:format>image/svg+xml</dc:format>
        <dc:type
           rdf:resource="http://purl.org/dc/dcmitype/StillImage" />
        <dc:title>add</dc:title>
      </cc:Work>
    </rdf:RDF>
  </metadata>
  <defs
     id="defs14" />
  <sodipodi:namedview
     pagecolor="#ffffff"
     bordercolor="#666666"
     borderopacity="1"
     objecttolerance="10"
     gridtolerance="10"
     guidetolerance="10"
     inkscape:pageopacity="0"
     inkscape:pageshadow="2"
     inkscape:window-width="1920"
     inkscape:window-height="1014"
     id="namedview12"
     showgrid="false"
     fit-margin-top="0"
     fit-margin-left="0"
     fit-margin-right="0"
     fit-margin-bottom="0"
     inkscape:zoom="5.9"
     inkscape:cx="23.124041"
     inkscape:cy="32.493652"
     inkscape:window-x="0"
     inkscape:window-y="0"
     inkscape:window-maximized="1"
     inkscape:current-layer="svg10" />
  <title
     id="title2">add</title>
  <path
     d="M 51.739846,8.8873024 C 39.936112,-2.9164311 20.683009,-2.9532007 8.8771541,8.8526541 -2.9265794,20.656388 -2.9251652,39.878378 8.9118024,51.715346 c 11.8037336,11.803733 31.0243096,11.803733 42.8280436,0 11.803733,-11.803734 11.803733,-31.02431 0,-42.8280436 z m -4.975203,4.9752036 c 9.067937,9.067937 9.067937,23.809699 0,32.877637 -9.067938,9.067937 -23.8097,9.067937 -32.877637,0 -9.0679377,-9.067938 -9.0679377,-23.8097 0,-32.877637 9.067937,-9.0679377 23.809699,-9.0679377 32.877637,0 z m -4.356485,4.356485 c -1.363302,-1.363302 -3.647257,-1.363302 -5.010559,0 l -6.861764,6.861764 -6.861057,-6.861057 c -1.363302,-1.363302 -3.647257,-1.364716 -5.011266,-7.07e-4 -1.364009,1.364009 -1.362595,3.647963 7.07e-4,5.011265 l 6.861057,6.861057 -6.861057,6.861057 c -1.363302,1.363302 -1.363302,3.647257 0,5.010559 1.363302,1.363302 3.647257,1.363302 5.010559,0 l 6.861057,-6.861057 6.861057,6.861057 c 1.363302,1.363302 3.647257,1.364716 5.011266,7.07e-4 1.364009,-1.364009 1.296834,-3.643014 -0.03606,-4.97591 l -6.861057,-6.861057 6.89712,-6.89712 c 1.363302,-1.363302 1.363302,-3.647257 0,-5.010558 z"
     id="path4"
     inkscape:connector-curvature="0" />
</svg>
