<?xml version="1.0" encoding="UTF-8" standalone="no"?>
<svg
   xmlns:dc="http://purl.org/dc/elements/1.1/"
   xmlns:cc="http://creativecommons.org/ns#"
   xmlns:rdf="http://www.w3.org/1999/02/22-rdf-syntax-ns#"
   xmlns:svg="http://www.w3.org/2000/svg"
   xmlns="http://www.w3.org/2000/svg"
   xmlns:sodipodi="http://sodipodi.sourceforge.net/DTD/sodipodi-0.dtd"
   xmlns:inkscape="http://www.inkscape.org/namespaces/inkscape"
   viewBox="0 0 30 26.01"
   x="0px"
   y="0px"
   version="1.1"
   id="svg16"
   sodipodi:docname="screen.svg"
   width="30"
   height="26.01"
   inkscape:version="0.92.3 (2405546, 2018-03-11)">
  <metadata
     id="metadata22">
    <rdf:RDF>
      <cc:Work
         rdf:about="">
        <dc:format>image/svg+xml</dc:format>
        <dc:type
           rdf:resource="http://purl.org/dc/dcmitype/StillImage" />
        <dc:title>Artboard 14</dc:title>
      </cc:Work>
    </rdf:RDF>
  </metadata>
  <defs
     id="defs20" />
  <sodipodi:namedview
     pagecolor="#ffffff"
     bordercolor="#666666"
     borderopacity="1"
     objecttolerance="10"
     gridtolerance="10"
     guidetolerance="10"
     inkscape:pageopacity="0"
     inkscape:pageshadow="2"
     inkscape:window-width="1920"
     inkscape:window-height="1014"
     id="namedview18"
     showgrid="false"
     fit-margin-top="0"
     fit-margin-left="0"
     fit-margin-right="0"
     fit-margin-bottom="0"
     inkscape:zoom="5.9"
     inkscape:cx="-25.677966"
     inkscape:cy="9.0100002"
     inkscape:window-x="0"
     inkscape:window-y="0"
     inkscape:window-maximized="1"
     inkscape:current-layer="svg16" />
  <title
     id="title2">Artboard 14</title>
  <g
     data-name="Layer 2"
     id="g10"
     transform="translate(-1,-3)">
    <path
       d="M 28,25 H 4 A 3,3 0 0 1 1,22 V 6 A 3,3 0 0 1 4,3 h 24 a 3,3 0 0 1 3,3 v 16 a 3,3 0 0 1 -3,3 z M 4,5 A 1,1 0 0 0 3,6 v 16 a 1,1 0 0 0 1,1 h 24 a 1,1 0 0 0 1,-1 V 6 A 1,1 0 0 0 28,5 Z"
       id="path4"
       inkscape:connector-curvature="0" />
    <rect
       x="11.02"
       y="27.01"
       width="10"
       height="2"
       rx="1"
       ry="1"
       id="rect6" />
    <rect
       x="15.02"
       y="24.01"
       width="2"
       height="4"
       id="rect8" />
  </g>
</svg>
